*******************************************************************************
JPL/HORIZONS                2867 Steins (1969 VC)          2008-Jul-09 02:41:38
Rec #:  2867 (+COV)   Soln.date: 2008-May-22_11:16:06   # obs: 1254 (1951-2008)
 
FK5/J2000.0 helio. ecliptic osc. elements (AU, DAYS, DEG, period=Julian yrs):  
 
  EPOCH=  2453246.5 ! 2004-Aug-29.00 (CT)         Residual RMS= .51162         
    EC= .1455156436399198  QR= 2.01973895508645   TP= 2453544.515082891        
    OM= 55.54128820111749  W= 250.41336980507     IN= 9.94469149913915         
    A= 2.363693308195956   MA= 279.1731543839722  ADIST= 2.707647661305463     
    PER= 3.63408           N= .271217298          ANGMOM= .026165532           
    DAN= 2.43229           DDN= 2.20603           L= 305.679092                
    B= -9.363906                                  TP= 2005-Jun-23.0150829      
 
Physical parameters (KM, SEC, rotational period in hours):
    GM= n.a.               RAD= n.a.              ROTPER= 6.049                
    H= 12.357              G= .150                B-V= n.a.                    
                           ALBEDO= n.a.           STYP= n.a.                   
 
ASTEROID comments: 
1: soln ref.= JPL#8, OCC=0
2: source=ORB
*******************************************************************************
 
 
*******************************************************************************
Ephemeris / WWW_USER Wed Jul  9 02:41:38 2008  Pasadena, USA     / Horizons    
*******************************************************************************
Target body name: 2867 Steins (1969 VC)           {source: JPL#8}
Center body name: Sun (10)                        {source: DE405}
Center-site name: BODY CENTER
*******************************************************************************
Start time      : A.D. 2008-Sep-05 16:00:00.0000 CT 
Stop  time      : A.D. 2008-Sep-05 21:00:00.0000 CT 
Step-size       : 2 minutes
*******************************************************************************
Center geodetic : .000000000,.000000000,.00000000 {E-lon(deg),Lat(deg),Alt(km)}
Center cylindric: .000000000,.000000000,.00000000 {E-lon(deg),Dxy(km),Dz(km)}
Center radii    : 696000.0 x 696000.0 x 696000.0 k{Equator, meridian, pole}    
Small perturbers: Ceres, Pallas, Vesta            {source: SB405-CPV-2}
Small body GMs  : 6.32E+01, 1.43E+01, 1.78E+01 km^3/s^2                        
Output units    : KM-D                                                         
Output format   : 01
Reference frame : ICRF/J2000.0                                                 
Output type     : GEOMETRIC cartesian states
Coordinate systm: Ecliptic and Mean Equinox of Reference Epoch                 
*******************************************************************************
Initial FK5/J2000.0 heliocentric ecliptic osculating elements (AU, DAYS, DEG):
  EPOCH=  2453246.5 ! 2004-Aug-29.00 (CT)         Residual RMS= .51162         
    EC= .1455156436399198  QR= 2.01973895508645   TP= 2453544.515082891        
    OM= 55.54128820111749  W= 250.41336980507     IN= 9.94469149913915         
Asteroid physical parameters (KM, SEC, rotational period in hours):
    GM= n.a.               RAD= n.a.              ROTPER= 6.049                
    H= 12.357              G= .150                B-V= n.a.                    
                           ALBEDO= n.a.           STYP= n.a.                   
*******************************************************************************
JDCT 
   X     Y     Z
*******************************************************************************
$$SOE
2454715.166666667 = A.D. 2008-Sep-05 16:00:00.0000 (CT)
  -1.072719791847357E+08 -3.006189616205543E+08 -1.432650422286525E+07
2454715.168055556 = A.D. 2008-Sep-05 16:02:00.0000 (CT)
  -1.072695143953570E+08 -3.006195206244351E+08 -1.432691598396425E+07
2454715.169444445 = A.D. 2008-Sep-05 16:04:00.0000 (CT)
  -1.072670495996903E+08 -3.006200796107025E+08 -1.432732774422365E+07
2454715.170833333 = A.D. 2008-Sep-05 16:06:00.0000 (CT)
  -1.072645847977358E+08 -3.006206385793567E+08 -1.432773950364345E+07
2454715.172222222 = A.D. 2008-Sep-05 16:08:00.0000 (CT)
  -1.072621199894929E+08 -3.006211975303975E+08 -1.432815126222382E+07
2454715.173611111 = A.D. 2008-Sep-05 16:10:00.0000 (CT)
  -1.072596551749632E+08 -3.006217564638246E+08 -1.432856301996440E+07
2454715.175000000 = A.D. 2008-Sep-05 16:12:00.0000 (CT)
  -1.072571903541460E+08 -3.006223153796381E+08 -1.432897477686530E+07
2454715.176388889 = A.D. 2008-Sep-05 16:14:00.0000 (CT)
  -1.072547255270416E+08 -3.006228742778378E+08 -1.432938653292654E+07
2454715.177777778 = A.D. 2008-Sep-05 16:16:00.0000 (CT)
  -1.072522606936500E+08 -3.006234331584238E+08 -1.432979828814802E+07
2454715.179166667 = A.D. 2008-Sep-05 16:18:00.0000 (CT)
  -1.072497958539713E+08 -3.006239920213959E+08 -1.433021004252976E+07
2454715.180555556 = A.D. 2008-Sep-05 16:20:00.0000 (CT)
  -1.072473310080058E+08 -3.006245508667541E+08 -1.433062179607175E+07
2454715.181944444 = A.D. 2008-Sep-05 16:22:00.0000 (CT)
  -1.072448661557534E+08 -3.006251096944982E+08 -1.433103354877393E+07
2454715.183333333 = A.D. 2008-Sep-05 16:24:00.0000 (CT)
  -1.072424012972145E+08 -3.006256685046282E+08 -1.433144530063628E+07
2454715.184722222 = A.D. 2008-Sep-05 16:26:00.0000 (CT)
  -1.072399364323889E+08 -3.006262272971441E+08 -1.433185705165879E+07
2454715.186111111 = A.D. 2008-Sep-05 16:28:00.0000 (CT)
  -1.072374715612770E+08 -3.006267860720457E+08 -1.433226880184142E+07
2454715.187500000 = A.D. 2008-Sep-05 16:30:00.0000 (CT)
  -1.072350066838788E+08 -3.006273448293329E+08 -1.433268055118415E+07
2454715.188888889 = A.D. 2008-Sep-05 16:32:00.0000 (CT)
  -1.072325418001945E+08 -3.006279035690058E+08 -1.433309229968697E+07
2454715.190277778 = A.D. 2008-Sep-05 16:34:00.0000 (CT)
  -1.072300769102241E+08 -3.006284622910641E+08 -1.433350404734980E+07
2454715.191666667 = A.D. 2008-Sep-05 16:36:00.0000 (CT)
  -1.072276120139679E+08 -3.006290209955078E+08 -1.433391579417266E+07
2454715.193055556 = A.D. 2008-Sep-05 16:38:00.0000 (CT)
  -1.072251471114259E+08 -3.006295796823370E+08 -1.433432754015550E+07
2454715.194444444 = A.D. 2008-Sep-05 16:40:00.0000 (CT)
  -1.072226822025982E+08 -3.006301383515512E+08 -1.433473928529835E+07
2454715.195833333 = A.D. 2008-Sep-05 16:42:00.0000 (CT)
  -1.072202172874851E+08 -3.006306970031508E+08 -1.433515102960107E+07
2454715.197222222 = A.D. 2008-Sep-05 16:44:00.0000 (CT)
  -1.072177523660866E+08 -3.006312556371354E+08 -1.433556277306375E+07
2454715.198611111 = A.D. 2008-Sep-05 16:46:00.0000 (CT)
  -1.072152874384028E+08 -3.006318142535051E+08 -1.433597451568629E+07
2454715.200000000 = A.D. 2008-Sep-05 16:48:00.0000 (CT)
  -1.072128225044339E+08 -3.006323728522596E+08 -1.433638625746872E+07
2454715.201388889 = A.D. 2008-Sep-05 16:50:00.0000 (CT)
  -1.072103575641800E+08 -3.006329314333991E+08 -1.433679799841096E+07
2454715.202777778 = A.D. 2008-Sep-05 16:52:00.0000 (CT)
  -1.072078926176412E+08 -3.006334899969233E+08 -1.433720973851302E+07
2454715.204166667 = A.D. 2008-Sep-05 16:54:00.0000 (CT)
  -1.072054276648169E+08 -3.006340485428324E+08 -1.433762147777499E+07
2454715.205555555 = A.D. 2008-Sep-05 16:56:00.0000 (CT)
  -1.072029627057087E+08 -3.006346070711260E+08 -1.433803321619658E+07
2454715.206944444 = A.D. 2008-Sep-05 16:58:00.0000 (CT)
  -1.072004977403161E+08 -3.006351655818042E+08 -1.433844495377788E+07
2454715.208333333 = A.D. 2008-Sep-05 17:00:00.0000 (CT)
  -1.071980327686392E+08 -3.006357240748667E+08 -1.433885669051892E+07
2454715.209722222 = A.D. 2008-Sep-05 17:02:00.0000 (CT)
  -1.071955677906780E+08 -3.006362825503137E+08 -1.433926842641959E+07
2454715.211111111 = A.D. 2008-Sep-05 17:04:00.0000 (CT)
  -1.071931028064327E+08 -3.006368410081450E+08 -1.433968016147994E+07
2454715.212500000 = A.D. 2008-Sep-05 17:06:00.0000 (CT)
  -1.071906378159034E+08 -3.006373994483604E+08 -1.434009189569989E+07
2454715.213888889 = A.D. 2008-Sep-05 17:08:00.0000 (CT)
  -1.071881728190903E+08 -3.006379578709601E+08 -1.434050362907946E+07
2454715.215277778 = A.D. 2008-Sep-05 17:10:00.0000 (CT)
  -1.071857078159935E+08 -3.006385162759438E+08 -1.434091536161858E+07
2454715.216666667 = A.D. 2008-Sep-05 17:12:00.0000 (CT)
  -1.071832428066130E+08 -3.006390746633115E+08 -1.434132709331727E+07
2454715.218055556 = A.D. 2008-Sep-05 17:14:00.0000 (CT)
  -1.071807777909492E+08 -3.006396330330631E+08 -1.434173882417546E+07
2454715.219444444 = A.D. 2008-Sep-05 17:16:00.0000 (CT)
  -1.071783127690019E+08 -3.006401913851985E+08 -1.434215055419314E+07
2454715.220833333 = A.D. 2008-Sep-05 17:18:00.0000 (CT)
  -1.071758477407715E+08 -3.006407497197177E+08 -1.434256228337027E+07
2454715.222222222 = A.D. 2008-Sep-05 17:20:00.0000 (CT)
  -1.071733827062580E+08 -3.006413080366205E+08 -1.434297401170686E+07
2454715.223611111 = A.D. 2008-Sep-05 17:22:00.0000 (CT)
  -1.071709176654615E+08 -3.006418663359070E+08 -1.434338573920284E+07
2454715.225000000 = A.D. 2008-Sep-05 17:24:00.0000 (CT)
  -1.071684526183822E+08 -3.006424246175770E+08 -1.434379746585821E+07
2454715.226388889 = A.D. 2008-Sep-05 17:26:00.0000 (CT)
  -1.071659875650202E+08 -3.006429828816303E+08 -1.434420919167295E+07
2454715.227777778 = A.D. 2008-Sep-05 17:28:00.0000 (CT)
  -1.071635225053757E+08 -3.006435411280670E+08 -1.434462091664702E+07
2454715.229166667 = A.D. 2008-Sep-05 17:30:00.0000 (CT)
  -1.071610574394487E+08 -3.006440993568870E+08 -1.434503264078040E+07
2454715.230555556 = A.D. 2008-Sep-05 17:32:00.0000 (CT)
  -1.071585923672394E+08 -3.006446575680903E+08 -1.434544436407307E+07
2454715.231944445 = A.D. 2008-Sep-05 17:34:00.0000 (CT)
  -1.071561272887479E+08 -3.006452157616765E+08 -1.434585608652496E+07
2454715.233333333 = A.D. 2008-Sep-05 17:36:00.0000 (CT)
  -1.071536622039744E+08 -3.006457739376459E+08 -1.434626780813609E+07
2454715.234722222 = A.D. 2008-Sep-05 17:38:00.0000 (CT)
  -1.071511971129181E+08 -3.006463320959983E+08 -1.434667952890655E+07
2454715.236111111 = A.D. 2008-Sep-05 17:40:00.0000 (CT)
  -1.071487320155808E+08 -3.006468902367335E+08 -1.434709124883607E+07
2454715.237500000 = A.D. 2008-Sep-05 17:42:00.0000 (CT)
  -1.071462669119618E+08 -3.006474483598515E+08 -1.434750296792470E+07
2454715.238888889 = A.D. 2008-Sep-05 17:44:00.0000 (CT)
  -1.071438018020613E+08 -3.006480064653522E+08 -1.434791468617249E+07
2454715.240277778 = A.D. 2008-Sep-05 17:46:00.0000 (CT)
  -1.071413366858794E+08 -3.006485645532355E+08 -1.434832640357937E+07
2454715.241666667 = A.D. 2008-Sep-05 17:48:00.0000 (CT)
  -1.071388715634162E+08 -3.006491226235014E+08 -1.434873812014531E+07
2454715.243055556 = A.D. 2008-Sep-05 17:50:00.0000 (CT)
  -1.071364064346718E+08 -3.006496806761497E+08 -1.434914983587030E+07
2454715.244444444 = A.D. 2008-Sep-05 17:52:00.0000 (CT)
  -1.071339412996464E+08 -3.006502387111804E+08 -1.434956155075429E+07
2454715.245833333 = A.D. 2008-Sep-05 17:54:00.0000 (CT)
  -1.071314761583401E+08 -3.006507967285935E+08 -1.434997326479727E+07
2454715.247222222 = A.D. 2008-Sep-05 17:56:00.0000 (CT)
  -1.071290110107530E+08 -3.006513547283888E+08 -1.435038497799923E+07
2454715.248611111 = A.D. 2008-Sep-05 17:58:00.0000 (CT)
  -1.071265458568853E+08 -3.006519127105663E+08 -1.435079669036011E+07
2454715.250000000 = A.D. 2008-Sep-05 18:00:00.0000 (CT)
  -1.071240806967370E+08 -3.006524706751258E+08 -1.435120840187991E+07
2454715.251388889 = A.D. 2008-Sep-05 18:02:00.0000 (CT)
  -1.071216155303083E+08 -3.006530286220673E+08 -1.435162011255860E+07
2454715.252777778 = A.D. 2008-Sep-05 18:04:00.0000 (CT)
  -1.071191503575994E+08 -3.006535865513908E+08 -1.435203182239611E+07
2454715.254166667 = A.D. 2008-Sep-05 18:06:00.0000 (CT)
  -1.071166851786103E+08 -3.006541444630961E+08 -1.435244353139251E+07
2454715.255555556 = A.D. 2008-Sep-05 18:08:00.0000 (CT)
  -1.071142199933412E+08 -3.006547023571832E+08 -1.435285523954767E+07
2454715.256944444 = A.D. 2008-Sep-05 18:10:00.0000 (CT)
  -1.071117548017922E+08 -3.006552602336519E+08 -1.435326694686164E+07
2454715.258333333 = A.D. 2008-Sep-05 18:12:00.0000 (CT)
  -1.071092896039635E+08 -3.006558180925022E+08 -1.435367865333433E+07
2454715.259722222 = A.D. 2008-Sep-05 18:14:00.0000 (CT)
  -1.071068243998551E+08 -3.006563759337341E+08 -1.435409035896577E+07
2454715.261111111 = A.D. 2008-Sep-05 18:16:00.0000 (CT)
  -1.071043591894673E+08 -3.006569337573475E+08 -1.435450206375590E+07
2454715.262500000 = A.D. 2008-Sep-05 18:18:00.0000 (CT)
  -1.071018939728000E+08 -3.006574915633422E+08 -1.435491376770471E+07
2454715.263888889 = A.D. 2008-Sep-05 18:20:00.0000 (CT)
  -1.070994287498535E+08 -3.006580493517181E+08 -1.435532547081216E+07
2454715.265277778 = A.D. 2008-Sep-05 18:22:00.0000 (CT)
  -1.070969635206279E+08 -3.006586071224753E+08 -1.435573717307821E+07
2454715.266666667 = A.D. 2008-Sep-05 18:24:00.0000 (CT)
  -1.070944982851225E+08 -3.006591648756137E+08 -1.435614887450303E+07
2454715.268055555 = A.D. 2008-Sep-05 18:26:00.0000 (CT)
  -1.070920330433390E+08 -3.006597226111331E+08 -1.435656057508624E+07
2454715.269444444 = A.D. 2008-Sep-05 18:28:00.0000 (CT)
  -1.070895677952769E+08 -3.006602803290334E+08 -1.435697227482805E+07
2454715.270833333 = A.D. 2008-Sep-05 18:30:00.0000 (CT)
  -1.070871025409360E+08 -3.006608380293146E+08 -1.435738397372833E+07
2454715.272222222 = A.D. 2008-Sep-05 18:32:00.0000 (CT)
  -1.070846372803168E+08 -3.006613957119765E+08 -1.435779567178710E+07
2454715.273611111 = A.D. 2008-Sep-05 18:34:00.0000 (CT)
  -1.070821720134191E+08 -3.006619533770193E+08 -1.435820736900437E+07
2454715.275000000 = A.D. 2008-Sep-05 18:36:00.0000 (CT)
  -1.070797067402433E+08 -3.006625110244427E+08 -1.435861906538002E+07
2454715.276388889 = A.D. 2008-Sep-05 18:38:00.0000 (CT)
  -1.070772414607893E+08 -3.006630686542466E+08 -1.435903076091409E+07
2454715.277777778 = A.D. 2008-Sep-05 18:40:00.0000 (CT)
  -1.070747761750574E+08 -3.006636262664310E+08 -1.435944245560656E+07
2454715.279166667 = A.D. 2008-Sep-05 18:42:00.0000 (CT)
  -1.070723108830476E+08 -3.006641838609959E+08 -1.435985414945740E+07
2454715.280555556 = A.D. 2008-Sep-05 18:44:00.0000 (CT)
  -1.070698455847601E+08 -3.006647414379411E+08 -1.436026584246652E+07
2454715.281944444 = A.D. 2008-Sep-05 18:46:00.0000 (CT)
  -1.070673802801950E+08 -3.006652989972665E+08 -1.436067753463398E+07
2454715.283333333 = A.D. 2008-Sep-05 18:48:00.0000 (CT)
  -1.070649149693525E+08 -3.006658565389721E+08 -1.436108922595973E+07
2454715.284722222 = A.D. 2008-Sep-05 18:50:00.0000 (CT)
  -1.070624496522327E+08 -3.006664140630578E+08 -1.436150091644372E+07
2454715.286111111 = A.D. 2008-Sep-05 18:52:00.0000 (CT)
  -1.070599843288356E+08 -3.006669715695234E+08 -1.436191260608593E+07
2454715.287500000 = A.D. 2008-Sep-05 18:54:00.0000 (CT)
  -1.070575189991615E+08 -3.006675290583691E+08 -1.436232429488634E+07
2454715.288888889 = A.D. 2008-Sep-05 18:56:00.0000 (CT)
  -1.070550536632104E+08 -3.006680865295946E+08 -1.436273598284492E+07
2454715.290277778 = A.D. 2008-Sep-05 18:58:00.0000 (CT)
  -1.070525883209825E+08 -3.006686439831998E+08 -1.436314766996166E+07
2454715.291666667 = A.D. 2008-Sep-05 19:00:00.0000 (CT)
  -1.070501229724779E+08 -3.006692014191848E+08 -1.436355935623649E+07
2454715.293055556 = A.D. 2008-Sep-05 19:02:00.0000 (CT)
  -1.070476576176968E+08 -3.006697588375494E+08 -1.436397104166943E+07
2454715.294444445 = A.D. 2008-Sep-05 19:04:00.0000 (CT)
  -1.070451922566392E+08 -3.006703162382935E+08 -1.436438272626042E+07
2454715.295833333 = A.D. 2008-Sep-05 19:06:00.0000 (CT)
  -1.070427268893053E+08 -3.006708736214170E+08 -1.436479441000949E+07
2454715.297222222 = A.D. 2008-Sep-05 19:08:00.0000 (CT)
  -1.070402615156945E+08 -3.006714309869202E+08 -1.436520609291668E+07
2454715.298611111 = A.D. 2008-Sep-05 19:10:00.0000 (CT)
  -1.070377961358083E+08 -3.006719883348024E+08 -1.436561777498175E+07
2454715.300000000 = A.D. 2008-Sep-05 19:12:00.0000 (CT)
  -1.070353307496463E+08 -3.006725456650638E+08 -1.436602945620476E+07
2454715.301388889 = A.D. 2008-Sep-05 19:14:00.0000 (CT)
  -1.070328653572084E+08 -3.006731029777044E+08 -1.436644113658568E+07
2454715.302777778 = A.D. 2008-Sep-05 19:16:00.0000 (CT)
  -1.070303999584950E+08 -3.006736602727241E+08 -1.436685281612456E+07
2454715.304166667 = A.D. 2008-Sep-05 19:18:00.0000 (CT)
  -1.070279345535059E+08 -3.006742175501227E+08 -1.436726449482128E+07
2454715.305555556 = A.D. 2008-Sep-05 19:20:00.0000 (CT)
  -1.070254691422414E+08 -3.006747748099002E+08 -1.436767617267586E+07
2454715.306944444 = A.D. 2008-Sep-05 19:22:00.0000 (CT)
  -1.070230037247017E+08 -3.006753320520566E+08 -1.436808784968828E+07
2454715.308333333 = A.D. 2008-Sep-05 19:24:00.0000 (CT)
  -1.070205383008868E+08 -3.006758892765917E+08 -1.436849952585851E+07
2454715.309722222 = A.D. 2008-Sep-05 19:26:00.0000 (CT)
  -1.070180728707969E+08 -3.006764464835054E+08 -1.436891120118651E+07
2454715.311111111 = A.D. 2008-Sep-05 19:28:00.0000 (CT)
  -1.070156074344320E+08 -3.006770036727978E+08 -1.436932287567222E+07
2454715.312500000 = A.D. 2008-Sep-05 19:30:00.0000 (CT)
  -1.070131419917924E+08 -3.006775608444686E+08 -1.436973454931571E+07
2454715.313888889 = A.D. 2008-Sep-05 19:32:00.0000 (CT)
  -1.070106765428782E+08 -3.006781179985179E+08 -1.437014622211689E+07
2454715.315277778 = A.D. 2008-Sep-05 19:34:00.0000 (CT)
  -1.070082110876894E+08 -3.006786751349455E+08 -1.437055789407574E+07
2454715.316666667 = A.D. 2008-Sep-05 19:36:00.0000 (CT)
  -1.070057456262263E+08 -3.006792322537513E+08 -1.437096956519224E+07
2454715.318055556 = A.D. 2008-Sep-05 19:38:00.0000 (CT)
  -1.070032801584889E+08 -3.006797893549353E+08 -1.437138123546633E+07
2454715.319444444 = A.D. 2008-Sep-05 19:40:00.0000 (CT)
  -1.070008146844773E+08 -3.006803464384975E+08 -1.437179290489803E+07
2454715.320833333 = A.D. 2008-Sep-05 19:42:00.0000 (CT)
  -1.069983492041918E+08 -3.006809035044377E+08 -1.437220457348725E+07
2454715.322222222 = A.D. 2008-Sep-05 19:44:00.0000 (CT)
  -1.069958837176323E+08 -3.006814605527559E+08 -1.437261624123408E+07
2454715.323611111 = A.D. 2008-Sep-05 19:46:00.0000 (CT)
  -1.069934182247991E+08 -3.006820175834519E+08 -1.437302790813838E+07
2454715.325000000 = A.D. 2008-Sep-05 19:48:00.0000 (CT)
  -1.069909527256923E+08 -3.006825745965256E+08 -1.437343957420018E+07
2454715.326388889 = A.D. 2008-Sep-05 19:50:00.0000 (CT)
  -1.069884872203120E+08 -3.006831315919771E+08 -1.437385123941945E+07
2454715.327777778 = A.D. 2008-Sep-05 19:52:00.0000 (CT)
  -1.069860217086583E+08 -3.006836885698063E+08 -1.437426290379614E+07
2454715.329166667 = A.D. 2008-Sep-05 19:54:00.0000 (CT)
  -1.069835561907306E+08 -3.006842455300131E+08 -1.437467456733039E+07
2454715.330555555 = A.D. 2008-Sep-05 19:56:00.0000 (CT)
  -1.069810906665306E+08 -3.006848024725973E+08 -1.437508623002185E+07
2454715.331944444 = A.D. 2008-Sep-05 19:58:00.0000 (CT)
  -1.069786251360576E+08 -3.006853593975588E+08 -1.437549789187069E+07
2454715.333333333 = A.D. 2008-Sep-05 20:00:00.0000 (CT)
  -1.069761595993118E+08 -3.006859163048977E+08 -1.437590955287686E+07
2454715.334722222 = A.D. 2008-Sep-05 20:02:00.0000 (CT)
  -1.069736940562931E+08 -3.006864731946137E+08 -1.437632121304032E+07
2454715.336111111 = A.D. 2008-Sep-05 20:04:00.0000 (CT)
  -1.069712285070020E+08 -3.006870300667070E+08 -1.437673287236105E+07
2454715.337500000 = A.D. 2008-Sep-05 20:06:00.0000 (CT)
  -1.069687629514383E+08 -3.006875869211773E+08 -1.437714453083906E+07
2454715.338888889 = A.D. 2008-Sep-05 20:08:00.0000 (CT)
  -1.069662973896023E+08 -3.006881437580246E+08 -1.437755618847424E+07
2454715.340277778 = A.D. 2008-Sep-05 20:10:00.0000 (CT)
  -1.069638318214941E+08 -3.006887005772488E+08 -1.437796784526667E+07
2454715.341666667 = A.D. 2008-Sep-05 20:12:00.0000 (CT)
  -1.069613662471138E+08 -3.006892573788497E+08 -1.437837950121625E+07
2454715.343055556 = A.D. 2008-Sep-05 20:14:00.0000 (CT)
  -1.069589006664615E+08 -3.006898141628276E+08 -1.437879115632294E+07
2454715.344444444 = A.D. 2008-Sep-05 20:16:00.0000 (CT)
  -1.069564350795374E+08 -3.006903709291820E+08 -1.437920281058681E+07
2454715.345833333 = A.D. 2008-Sep-05 20:18:00.0000 (CT)
  -1.069539694863416E+08 -3.006909276779131E+08 -1.437961446400774E+07
2454715.347222222 = A.D. 2008-Sep-05 20:20:00.0000 (CT)
  -1.069515038868742E+08 -3.006914844090207E+08 -1.438002611658573E+07
2454715.348611111 = A.D. 2008-Sep-05 20:22:00.0000 (CT)
  -1.069490382811354E+08 -3.006920411225047E+08 -1.438043776832077E+07
2454715.350000000 = A.D. 2008-Sep-05 20:24:00.0000 (CT)
  -1.069465726691252E+08 -3.006925978183650E+08 -1.438084941921282E+07
2454715.351388889 = A.D. 2008-Sep-05 20:26:00.0000 (CT)
  -1.069441070508439E+08 -3.006931544966018E+08 -1.438126106926183E+07
2454715.352777778 = A.D. 2008-Sep-05 20:28:00.0000 (CT)
  -1.069416414262915E+08 -3.006937111572146E+08 -1.438167271846783E+07
2454715.354166667 = A.D. 2008-Sep-05 20:30:00.0000 (CT)
  -1.069391757954681E+08 -3.006942678002036E+08 -1.438208436683074E+07
2454715.355555556 = A.D. 2008-Sep-05 20:32:00.0000 (CT)
  -1.069367101583740E+08 -3.006948244255686E+08 -1.438249601435056E+07
2454715.356944445 = A.D. 2008-Sep-05 20:34:00.0000 (CT)
  -1.069342445150091E+08 -3.006953810333095E+08 -1.438290766102728E+07
2454715.358333333 = A.D. 2008-Sep-05 20:36:00.0000 (CT)
  -1.069317788653737E+08 -3.006959376234264E+08 -1.438331930686085E+07
2454715.359722222 = A.D. 2008-Sep-05 20:38:00.0000 (CT)
  -1.069293132094671E+08 -3.006964941959192E+08 -1.438373095185135E+07
2454715.361111111 = A.D. 2008-Sep-05 20:40:00.0000 (CT)
  -1.069268475472910E+08 -3.006970507507876E+08 -1.438414259599854E+07
2454715.362500000 = A.D. 2008-Sep-05 20:42:00.0000 (CT)
  -1.069243818788447E+08 -3.006976072880317E+08 -1.438455423930250E+07
2454715.363888889 = A.D. 2008-Sep-05 20:44:00.0000 (CT)
  -1.069219162041283E+08 -3.006981638076512E+08 -1.438496588176322E+07
2454715.365277778 = A.D. 2008-Sep-05 20:46:00.0000 (CT)
  -1.069194505231421E+08 -3.006987203096462E+08 -1.438537752338067E+07
2454715.366666667 = A.D. 2008-Sep-05 20:48:00.0000 (CT)
  -1.069169848358860E+08 -3.006992767940168E+08 -1.438578916415477E+07
2454715.368055556 = A.D. 2008-Sep-05 20:50:00.0000 (CT)
  -1.069145191423603E+08 -3.006998332607626E+08 -1.438620080408558E+07
2454715.369444444 = A.D. 2008-Sep-05 20:52:00.0000 (CT)
  -1.069120534425651E+08 -3.007003897098836E+08 -1.438661244317302E+07
2454715.370833333 = A.D. 2008-Sep-05 20:54:00.0000 (CT)
  -1.069095877365005E+08 -3.007009461413798E+08 -1.438702408141707E+07
2454715.372222222 = A.D. 2008-Sep-05 20:56:00.0000 (CT)
  -1.069071220241666E+08 -3.007015025552511E+08 -1.438743571881773E+07
2454715.373611111 = A.D. 2008-Sep-05 20:58:00.0000 (CT)
  -1.069046563055635E+08 -3.007020589514974E+08 -1.438784735537493E+07
2454715.375000000 = A.D. 2008-Sep-05 21:00:00.0000 (CT)
  -1.069021905806915E+08 -3.007026153301186E+08 -1.438825899108869E+07
$$EOE
*******************************************************************************
Coordinate system description:

  Ecliptic and Mean Equinox of Reference Epoch

    Reference epoch: J2000.0
    xy-plane: plane of the Earth's orbit at the reference epoch
    x-axis  : out along ascending node of instantaneous plane of the Earth's
              orbit and the Earth's mean equator at the reference epoch
    z-axis  : perpendicular to the xy-plane in the directional (+ or -) sense
              of Earth's north pole at the reference epoch.

Symbol meaning [1 day=86400.0 s]:

    JDCT     Epoch Julian Date, Coordinate Time
      X      x-component of position vector (km)                               
      Y      y-component of position vector (km)                               
      Z      z-component of position vector (km)                               

Geometric states/elements have no aberration corrections applied.

 Computations by ...
     Solar System Dynamics Group, Horizons On-Line Ephemeris System
     4800 Oak Grove Drive, Jet Propulsion Laboratory
     Pasadena, CA  91109   USA
     Information: http://ssd.jpl.nasa.gov/
     Connect    : telnet://ssd.jpl.nasa.gov:6775  (via browser)
                  telnet ssd.jpl.nasa.gov 6775    (via command-line)
     Author     : Jon.Giorgini@jpl.nasa.gov
*******************************************************************************
